Xilinx/Vivado/Simple_HW/.Xil/Vivado-124420-saad-17Z90N-R-AAC8U1/hw_ila_data_1/zip_work/waveform.vcd
$date
        2021-Nov-30 00:33:46
$end
$version
        Vivado v2021.2 (64-bit)
$end
$timescale
        1ps
$end
$scope module dut $end
$var reg 32 " SDUAM_i/system_ila_0/inst/probe0_1 [31:0] $end
$var reg 32 B SDUAM_i/system_ila_0/inst/probe1_1 [31:0] $end
$var reg 32 b SDUAM_i/system_ila_0/inst/probe2_1 [31:0] $end
$var reg 32 $" SDUAM_i/system_ila_0/inst/probe3_1 [31:0] $end
$var reg 1 D" SDUAM_i/system_ila_0/inst/probe4_1 $end
$var reg 1 E" SDUAM_i/system_ila_0/inst/probe5_1 $end
$var reg 12 F" SDUAM_i/system_ila_0/inst/SLOT_0_BRAM_addr_1 [11:0] $end
$var reg 32 R" SDUAM_i/system_ila_0/inst/SLOT_0_BRAM_din_1 [31:0] $end
$var reg 32 r" SDUAM_i/system_ila_0/inst/SLOT_0_BRAM_dout_1 [31:0] $end
$var reg 1 4# SDUAM_i/system_ila_0/inst/SLOT_0_BRAM_en_1 $end
$var reg 1 5# SDUAM_i/system_ila_0/inst/SLOT_0_BRAM_rst_1 $end
$var reg 4 6# SDUAM_i/system_ila_0/inst/SLOT_0_BRAM_we_1 [3:0] $end
$var reg 1 :# SDUAM_i/system_ila_0/inst/SLOT_1_BRAM_rst_1 $end
$var reg 32 ;# SDUAM_i/system_ila_0/inst/SLOT_1_BRAM_din_1 [31:0] $end
$var reg 1 [# SDUAM_i/system_ila_0/inst/SLOT_1_BRAM_en_1 $end
$var reg 32 \# SDUAM_i/system_ila_0/inst/SLOT_1_BRAM_dout_1 [31:0] $end
$var reg 4 |# SDUAM_i/system_ila_0/inst/SLOT_1_BRAM_we_1 [3:0] $end
$var reg 11 "$ SDUAM_i/system_ila_0/inst/SLOT_1_BRAM_addr_1 [10:0] $end
$var reg 1 -$ _TRIGGER $end
$var reg 1 .$ _WINDOW $end
$var reg 1 /$ _GAP $end
$upscope $end
$enddefinitions $end
#0
$dumpvars
b0 "
b0 B
b0 b
b0 $"
0D"
0E"
b0 F"
b10010001101000101011001010100 R"
b0 r"
04#
05#
b0 6#
0:#
b0 ;#
1[#
b0 \#
b0 |#
b0 "$
0-$
1.$
0/$
$end
#1
b1 "$
#2
b10 "$
#3
b11 "$
#4
b0 "$
#5
b1 "$
#6
b10 "$
#7
b11 "$
#8
b0 "$
#9
b1 "$
#10
b10 "$
#11
b11 "$
#12
b0 "$
#13
b1 "$
#14
b10 "$
#15
b11 "$
#16
b0 "$
#17
b1 "$
#18
b10 "$
#19
b100010001000100010001000100010 R"
b11 "$
#20
14#
b1111 6#
b0 "$
1-$
#21
b100010001000100010001000100010 r"
04#
b0 6#
b100010001000100010001000100010 \#
b1 "$
#22
b100010001000100010001000100010 B
b100 F"
b10 "$
#23
b100010001000100010001000100010 b
b11 "$
#24
b100010001000100010001000100010 $"
b0 "$
#25
b100010001000100010001000100010 "
b1 "$
#26
b10 "$
#27
b11 "$
#28
b0 "$
#29
b1 "$
#30
b10 "$
#31
b11 "$
#32
b0 "$
#33
b1 "$
#34
b10 "$
#35
b11 "$
#36
b0 "$
#37
b1 "$
#38
b10 "$
#39
b11 "$
#40
b0 "$
#41
b1 "$
#42
b10 "$
#43
b11 "$
#44
b0 "$
#45
b1 "$
#46
b10 "$
#47
b11 "$
#48
b0 "$
#49
b1 "$
#50
b10 "$
#51
b11 "$
#52
b0 "$
#53
b1 "$
#54
b10 "$
#55
b11 "$
#56
b0 "$
#57
b1 "$
#58
b10 "$
#59
b11 "$
#60
b0 "$
#61
b1 "$
#62
b10 "$
#63
b11 "$
#64
b0 "$
#65
b1 "$
#66
b10 "$
#67
b11 "$
#68
b0 "$
#69
b1 "$
#70
b10 "$
#71
b11 "$
#72
b0 "$
#73
b1 "$
#74
b10 "$
#75
b11 "$
#76
b0 "$
#77
b1 "$
#78
b10 "$
#79
b11 "$
#80
b0 "$
#81
b1 "$
#82
b10 "$
#83
b11 "$
#84
b0 "$
#85
b1 "$
#86
b10 "$
#87
b11 "$
#88
b0 "$
#89
b1 "$
#90
b10 "$
#91
b11 "$
#92
b0 "$
#93
b1 "$
#94
b10 "$
#95
b11 "$
#96
b0 "$
#97
b1 "$
#98
b10 "$
#99
b11 "$
#100
b0 "$
#101
b1 "$
#102
b10 "$
#103
b11 "$
#104
b0 "$
#105
b1 "$
#106
b10 "$
#107
b11 "$
#108
b0 "$
#109
b1 "$
#110
b10 "$
#111
b11 "$
#112
b0 "$
#113
b1 "$
#114
b10 "$
#115
b11 "$
#116
b0 "$
#117
b1 "$
#118
b10 "$
#119
b11 "$
#120
b0 "$
#121
b1 "$
#122
b10 "$
#123
b11 "$
#124
b0 "$
#125
b1 "$
#126
b10 "$
#127
b11 "$
#128
b0 "$
#129
b1 "$
#130
b10 "$
#131
b11 "$
#132
b0 "$
#133
b1 "$
#134
b10 "$
#135
b11 "$
#136
b0 "$
#137
b1 "$
#138
b10 "$
#139
b11 "$
#140
b0 "$
#141
b1 "$
#142
b10 "$
#143
b11 "$
#144
b0 "$
#145
b1 "$
#146
b10 "$
#147
b11 "$
#148
b0 "$
#149
b1 "$
#150
b10 "$
#151
b11 "$
#152
b0 "$
#153
b1 "$
#154
b10 "$
#155
b11 "$
#156
b0 "$
#157
b1 "$
#158
b10 "$
#159
b11 "$
#160
b0 "$
#161
b1 "$
#162
b10 "$
#163
b11 "$
#164
b0 "$
#165
b1 "$
#166
b10 "$
#167
b11 "$
#168
b0 "$
#169
b1 "$
#170
b10 "$
#171
b11 "$
#172
b0 "$
#173
b1 "$
#174
b10 "$
#175
b11 "$
#176
b0 "$
#177
b1 "$
#178
b10 "$
#179
b11 "$
#180
b0 "$
#181
b1 "$
#182
b10 "$
#183
b11 "$
#184
b0 "$
#185
b1 "$
#186
b10 "$
#187
b11 "$
#188
b0 "$
#189
b1 "$
#190
b10 "$
#191
b11 "$
#192
b0 "$
#193
b1 "$
#194
b10 "$
#195
b11 "$
#196
b0 "$
#197
b1 "$
#198
b10 "$
#199
b11 "$
#200
b0 "$
#201
b1 "$
#202
b10 "$
#203
b11 "$
#204
b0 "$
#205
b1 "$
#206
b10 "$
#207
b11 "$
#208
b0 "$
#209
b1 "$
#210
b10 "$
#211
b11 "$
#212
b0 "$
#213
b1 "$
#214
b10 "$
#215
b11 "$
#216
b0 "$
#217
b1 "$
#218
b10 "$
#219
b11 "$
#220
b0 "$
#221
b1 "$
#222
b10 "$
#223
b11 "$
#224
b0 "$
#225
b1 "$
#226
b10 "$
#227
b11 "$
#228
b0 "$
#229
b1 "$
#230
b10 "$
#231
b11 "$
#232
b0 "$
#233
b1 "$
#234
b10 "$
#235
b11 "$
#236
b0 "$
#237
b1 "$
#238
b10 "$
#239
b11 "$
#240
b0 "$
#241
b1 "$
#242
b10 "$
#243
b11 "$
#244
b0 "$
#245
b1 "$
#246
b10 "$
#247
b11 "$
#248
b0 "$
#249
b1 "$
#250
b10 "$
#251
b11 "$
#252
b0 "$
#253
b1 "$
#254
b10 "$
#255
b11 "$
#256
b0 "$
#257
b1 "$
#258
b10 "$
#259
b11 "$
#260
b0 "$
#261
b1 "$
#262
b10 "$
#263
b11 "$
#264
b0 "$
#265
b1 "$
#266
b10 "$
#267
b11 "$
#268
b0 "$
#269
b1 "$
#270
b10 "$
#271
b11 "$
#272
b0 "$
#273
b1 "$
#274
b10 "$
#275
b11 "$
#276
b0 "$
#277
b1 "$
#278
b10 "$
#279
b11 "$
#280
b0 "$
#281
b1 "$
#282
b10 "$
#283
b11 "$
#284
b0 "$
#285
b1 "$
#286
b10 "$
#287
b11 "$
#288
b0 "$
#289
b1 "$
#290
b10 "$
#291
b11 "$
#292
b0 "$
#293
b1 "$
#294
b10 "$
#295
b11 "$
#296
b0 "$
#297
b1 "$
#298
b10 "$
#299
b11 "$
#300
b0 "$
#301
b1 "$
#302
b10 "$
#303
b11 "$
#304
b0 "$
#305
b1 "$
#306
b10 "$
#307
b11 "$
#308
b0 "$
#309
b1 "$
#310
b10 "$
#311
b11 "$
#312
b0 "$
#313
b1 "$
#314
b10 "$
#315
b11 "$
#316
b0 "$
#317
b1 "$
#318
b10 "$
#319
b11 "$
#320
b0 "$
#321
b1 "$
#322
b10 "$
#323
b11 "$
#324
b0 "$
#325
b1 "$
#326
b10 "$
#327
b11 "$
#328
b0 "$
#329
b1 "$
#330
b10 "$
#331
b11 "$
#332
b0 "$
#333
b1 "$
#334
b10 "$
#335
b11 "$
#336
b0 "$
#337
b1 "$
#338
b10 "$
#339
b11 "$
#340
b0 "$
#341
b1 "$
#342
b10 "$
#343
b11 "$
#344
b0 "$
#345
b1 "$
#346
b10 "$
#347
b11 "$
#348
b0 "$
#349
b1 "$
#350
b10 "$
#351
b11 "$
#352
b0 "$
#353
b1 "$
#354
b10 "$
#355
b11 "$
#356
b0 "$
#357
b1 "$
#358
b10 "$
#359
b11 "$
#360
b0 "$
#361
b1 "$
#362
b10 "$
#363
b11 "$
#364
b0 "$
#365
b1 "$
#366
b10 "$
#367
b11 "$
#368
b0 "$
#369
b1 "$
#370
b10 "$
#371
b11 "$
#372
b0 "$
#373
b1 "$
#374
b10 "$
#375
b11 "$
#376
b0 "$
#377
b1 "$
#378
b10 "$
#379
b11 "$
#380
b0 "$
#381
b1 "$
#382
b10 "$
#383
b11 "$
#384
b0 "$
#385
b1 "$
#386
b10 "$
#387
b11 "$
#388
b0 "$
#389
b1 "$
#390
b10 "$
#391
b11 "$
#392
b0 "$
#393
b1 "$
#394
b10 "$
#395
b11 "$
#396
b0 "$
#397
b1 "$
#398
b10 "$
#399
b11 "$
#400
b0 "$
#401
b1 "$
#402
b10 "$
#403
b11 "$
#404
b0 "$
#405
b1 "$
#406
b10 "$
#407
b11 "$
#408
b0 "$
#409
b1 "$
#410
b10 "$
#411
b11 "$
#412
b0 "$
#413
b1 "$
#414
b10 "$
#415
b11 "$
#416
b0 "$
#417
b1 "$
#418
b10 "$
#419
b11 "$
#420
b0 "$
#421
b1 "$
#422
b10 "$
#423
b11 "$
#424
b0 "$
#425
b1 "$
#426
b10 "$
#427
b11 "$
#428
b0 "$
#429
b1 "$
#430
b10 "$
#431
b11 "$
#432
b0 "$
#433
b1 "$
#434
b10 "$
#435
b11 "$
#436
b0 "$
#437
b1 "$
#438
b10 "$
#439
b11 "$
#440
b0 "$
#441
b1 "$
#442
b10 "$
#443
b11 "$
#444
b0 "$
#445
b1 "$
#446
b10 "$
#447
b11 "$
#448
b0 "$
#449
b1 "$
#450
b10 "$
#451
b11 "$
#452
b0 "$
#453
b1 "$
#454
b10 "$
#455
b11 "$
#456
b0 "$
#457
b1 "$
#458
b10 "$
#459
b11 "$
#460
b0 "$
#461
b1 "$
#462
b10 "$
#463
b11 "$
#464
b0 "$
#465
b1 "$
#466
b10 "$
#467
b11 "$
#468
b0 "$
#469
b1 "$
#470
b10 "$
#471
b11 "$
#472
b0 "$
#473
b1 "$
#474
b10 "$
#475
b11 "$
#476
b0 "$
#477
b1 "$
#478
b10 "$
#479
b11 "$
#480
b0 "$
#481
b1 "$
#482
b10 "$
#483
b11 "$
#484
b0 "$
#485
b1 "$
#486
b10 "$
#487
b11 "$
#488
b0 "$
#489
b1 "$
#490
b10 "$
#491
b11 "$
#492
b0 "$
#493
b1 "$
#494
b10 "$
#495
b11 "$
#496
b0 "$
#497
b1 "$
#498
b10 "$
#499
b11 "$
#500
b0 "$
#501
b1 "$
#502
b10 "$
#503
b11 "$
#504
b0 "$
#505
b1 "$
#506
b10 "$
#507
b11 "$
#508
b0 "$
#509
b1 "$
#510
b10 "$
#511
b11 "$
#512
b0 "$
#513
b1 "$
#514
b10 "$
#515
b11 "$
#516
b0 "$
#517
b1 "$
#518
b10 "$
#519
b11 "$
#520
b0 "$
#521
b1 "$
#522
b10 "$
#523
b11 "$
#524
b0 "$
#525
b1 "$
#526
b10 "$
#527
b11 "$
#528
b0 "$
#529
b1 "$
#530
b10 "$
#531
b11 "$
#532
b0 "$
#533
b1 "$
#534
b10 "$
#535
b11 "$
#536
b0 "$
#537
b1 "$
#538
b10 "$
#539
b11 "$
#540
b0 "$
#541
b1 "$
#542
b10 "$
#543
b11 "$
#544
b0 "$
#545
b1 "$
#546
b10 "$
#547
b11 "$
#548
b0 "$
#549
b1 "$
#550
b10 "$
#551
b11 "$
#552
b0 "$
#553
b1 "$
#554
b10 "$
#555
b11 "$
#556
b0 "$
#557
b1 "$
#558
b10 "$
#559
b11 "$
#560
b0 "$
#561
b1 "$
#562
b10 "$
#563
b11 "$
#564
b0 "$
#565
b1 "$
#566
b10 "$
#567
b11 "$
#568
b0 "$
#569
b1 "$
#570
b10 "$
#571
b11 "$
#572
b0 "$
#573
b1 "$
#574
b10 "$
#575
b11 "$
#576
b0 "$
#577
b1 "$
#578
b10 "$
#579
b11 "$
#580
b0 "$
#581
b1 "$
#582
b10 "$
#583
b11 "$
#584
b0 "$
#585
b1 "$
#586
b10 "$
#587
b11 "$
#588
b0 "$
#589
b1 "$
#590
b10 "$
#591
b11 "$
#592
b0 "$
#593
b1 "$
#594
b10 "$
#595
b11 "$
#596
b0 "$
#597
b1 "$
#598
b10 "$
#599
b11 "$
#600
b0 "$
#601
b1 "$
#602
b10 "$
#603
b11 "$
#604
b0 "$
#605
b1 "$
#606
b10 "$
#607
b11 "$
#608
b0 "$
#609
b1 "$
#610
b10 "$
#611
b11 "$
#612
b0 "$
#613
b1 "$
#614
b10 "$
#615
b11 "$
#616
b0 "$
#617
b1 "$
#618
b10 "$
#619
b11 "$
#620
b0 "$
#621
b1 "$
#622
b10 "$
#623
b11 "$
#624
b0 "$
#625
b1 "$
#626
b10 "$
#627
b11 "$
#628
b0 "$
#629
b1 "$
#630
b10 "$
#631
b11 "$
#632
b0 "$
#633
b1 "$
#634
b10 "$
#635
b11 "$
#636
b0 "$
#637
b1 "$
#638
b10 "$
#639
b11 "$
#640
b0 "$
#641
b1 "$
#642
b10 "$
#643
b11 "$
#644
b0 "$
#645
b1 "$
#646
b10 "$
#647
b11 "$
#648
b0 "$
#649
b1 "$
#650
b10 "$
#651
b11 "$
#652
b0 "$
#653
b1 "$
#654
b10 "$
#655
b11 "$
#656
b0 "$
#657
b1 "$
#658
b10 "$
#659
b11 "$
#660
b0 "$
#661
b1 "$
#662
b10 "$
#663
b11 "$
#664
b0 "$
#665
b1 "$
#666
b10 "$
#667
b11 "$
#668
b0 "$
#669
b1 "$
#670
b10 "$
#671
b11 "$
#672
b0 "$
#673
b1 "$
#674
b10 "$
#675
b11 "$
#676
b0 "$
#677
b1 "$
#678
b10 "$
#679
b11 "$
#680
b0 "$
#681
b1 "$
#682
b10 "$
#683
b11 "$
#684
b0 "$
#685
b1 "$
#686
b10 "$
#687
b11 "$
#688
b0 "$
#689
b1 "$
#690
b10 "$
#691
b11 "$
#692
b0 "$
#693
b1 "$
#694
b10 "$
#695
b11 "$
#696
b0 "$
#697
b1 "$
#698
b10 "$
#699
b11 "$
#700
b0 "$
#701
b1 "$
#702
b10 "$
#703
b11 "$
#704
b0 "$
#705
b1 "$
#706
b10 "$
#707
b11 "$
#708
b0 "$
#709
b1 "$
#710
b10 "$
#711
b11 "$
#712
b0 "$
#713
b1 "$
#714
b10 "$
#715
b11 "$
#716
b0 "$
#717
b1 "$
#718
b10 "$
#719
b11 "$
#720
b0 "$
#721
b1 "$
#722
b10 "$
#723
b11 "$
#724
b0 "$
#725
b1 "$
#726
b10 "$
#727
b11 "$
#728
b0 "$
#729
b1 "$
#730
b10 "$
#731
b11 "$
#732
b0 "$
#733
b1 "$
#734
b10 "$
#735
b11 "$
#736
b0 "$
#737
b1 "$
#738
b10 "$
#739
b11 "$
#740
b0 "$
#741
b1 "$
#742
b10 "$
#743
b11 "$
#744
b0 "$
#745
b1 "$
#746
b10 "$
#747
b11 "$
#748
b0 "$
#749
b1 "$
#750
b10 "$
#751
b11 "$
#752
b0 "$
#753
b1 "$
#754
b10 "$
#755
b11 "$
#756
b0 "$
#757
b1 "$
#758
b10 "$
#759
b11 "$
#760
b0 "$
#761
b1 "$
#762
b10 "$
#763
b11 "$
#764
b0 "$
#765
b1 "$
#766
b10 "$
#767
b11 "$
#768
b0 "$
#769
b1 "$
#770
b10 "$
#771
b11 "$
#772
b0 "$
#773
b1 "$
#774
b10 "$
#775
b11 "$
#776
b0 "$
#777
b1 "$
#778
b10 "$
#779
b11 "$
#780
b0 "$
#781
b1 "$
#782
b10 "$
#783
b11 "$
#784
b0 "$
#785
b1 "$
#786
b10 "$
#787
b11 "$
#788
b0 "$
#789
b1 "$
#790
b10 "$
#791
b11 "$
#792
b0 "$
#793
b1 "$
#794
b10 "$
#795
b11 "$
#796
b0 "$
#797
b1 "$
#798
b10 "$
#799
b11 "$
#800
b0 "$
#801
b1 "$
#802
b10 "$
#803
b11 "$
#804
b0 "$
#805
b1 "$
#806
b10 "$
#807
b11 "$
#808
b0 "$
#809
b1 "$
#810
b10 "$
#811
b11 "$
#812
b0 "$
#813
b1 "$
#814
b10 "$
#815
b11 "$
#816
b0 "$
#817
b1 "$
#818
b10 "$
#819
b11 "$
#820
b0 "$
#821
b1 "$
#822
b10 "$
#823
b11 "$
#824
b0 "$
#825
b1 "$
#826
b10 "$
#827
b11 "$
#828
b0 "$
#829
b1 "$
#830
b10 "$
#831
b11 "$
#832
b0 "$
#833
b1 "$
#834
b10 "$
#835
b11 "$
#836
b0 "$
#837
b1 "$
#838
b10 "$
#839
b11 "$
#840
b0 "$
#841
b1 "$
#842
b10 "$
#843
b11 "$
#844
b0 "$
#845
b1 "$
#846
b10 "$
#847
b11 "$
#848
b0 "$
#849
b1 "$
#850
b10 "$
#851
b11 "$
#852
b0 "$
#853
b1 "$
#854
b10 "$
#855
b11 "$
#856
b0 "$
#857
b1 "$
#858
b10 "$
#859
b11 "$
#860
b0 "$
#861
b1 "$
#862
b10 "$
#863
b11 "$
#864
b0 "$
#865
b1 "$
#866
b10 "$
#867
b11 "$
#868
b0 "$
#869
b1 "$
#870
b10 "$
#871
b11 "$
#872
b0 "$
#873
b1 "$
#874
b10 "$
#875
b11 "$
#876
b0 "$
#877
b1 "$
#878
b10 "$
#879
b11 "$
#880
b0 "$
#881
b1 "$
#882
b10 "$
#883
b11 "$
#884
b0 "$
#885
b1 "$
#886
b10 "$
#887
b11 "$
#888
b0 "$
#889
b1 "$
#890
b10 "$
#891
b11 "$
#892
b0 "$
#893
b1 "$
#894
b10 "$
#895
b11 "$
#896
b0 "$
#897
b1 "$
#898
b10 "$
#899
b11 "$
#900
b0 "$
#901
b1 "$
#902
b10 "$
#903
b11 "$
#904
b0 "$
#905
b1 "$
#906
b10 "$
#907
b11 "$
#908
b0 "$
#909
b1 "$
#910
b10 "$
#911
b11 "$
#912
b0 "$
#913
b1 "$
#914
b10 "$
#915
b11 "$
#916
b0 "$
#917
b1 "$
#918
b10 "$
#919
b11 "$
#920
b0 "$
#921
b1 "$
#922
b10 "$
#923
b11 "$
#924
b0 "$
#925
b1 "$
#926
b10 "$
#927
b11 "$
#928
b0 "$
#929
b1 "$
#930
b10 "$
#931
b11 "$
#932
b0 "$
#933
b1 "$
#934
b10 "$
#935
b11 "$
#936
b0 "$
#937
b1 "$
#938
b10 "$
#939
b11 "$
#940
b0 "$
#941
b1 "$
#942
b10 "$
#943
b11 "$
#944
b0 "$
#945
b1 "$
#946
b10 "$
#947
b11 "$
#948
b0 "$
#949
b1 "$
#950
b10 "$
#951
b11 "$
#952
b0 "$
#953
b1 "$
#954
b10 "$
#955
b11 "$
#956
b0 "$
#957
b1 "$
#958
b10 "$
#959
b11 "$
#960
b0 "$
#961
b1 "$
#962
b10 "$
#963
b11 "$
#964
b0 "$
#965
b1 "$
#966
b10 "$
#967
b11 "$
#968
b0 "$
#969
b1 "$
#970
b10 "$
#971
b11 "$
#972
b0 "$
#973
b1 "$
#974
b10 "$
#975
b11 "$
#976
b0 "$
#977
b1 "$
#978
b10 "$
#979
b11 "$
#980
b0 "$
#981
b1 "$
#982
b10 "$
#983
b11 "$
#984
b0 "$
#985
b1 "$
#986
b10 "$
#987
b11 "$
#988
b0 "$
#989
b1 "$
#990
b10 "$
#991
b11 "$
#992
b0 "$
#993
b1 "$
#994
b10 "$
#995
b11 "$
#996
b0 "$
#997
b1 "$
#998
b10 "$
#999
b11 "$
#1000
b0 "$
#1001
b1 "$
#1002
b10 "$
#1003
b11 "$
#1004
b0 "$
#1005
b1 "$
#1006
b10 "$
#1007
b11 "$
#1008
b0 "$
#1009
b1 "$
#1010
b10 "$
#1011
b11 "$
#1012
b0 "$
#1013
b1 "$
#1014
b10 "$
#1015
b11 "$
#1016
b0 "$
#1017
b1 "$
#1018
b10 "$
#1019
b11 "$
#1020
b0 "$
#1021
b1 "$
#1022
b10 "$
#1023
b11 "$
