Xilinx/Vivado/Simple_HW/.Xil/Vivado-318743-saad-17Z90N-R-AAC8U1/hw_ila_data_1/zip_work/waveform.vcd
$date
        2021-Nov-30 11:53:02
$end
$version
        Vivado v2021.2 (64-bit)
$end
$timescale
        1ps
$end
$scope module dut $end
$var reg 32 " SDUAM_i/system_ila_0/inst/probe0_1 [31:0] $end
$var reg 32 B SDUAM_i/system_ila_0/inst/probe1_1 [31:0] $end
$var reg 32 b SDUAM_i/system_ila_0/inst/probe2_1 [31:0] $end
$var reg 32 $" SDUAM_i/system_ila_0/inst/probe3_1 [31:0] $end
$var reg 1 D" SDUAM_i/system_ila_0/inst/probe4_1 $end
$var reg 1 E" SDUAM_i/system_ila_0/inst/probe5_1 $end
$var reg 32 F" SDUAM_i/system_ila_0/inst/probe6_1 [31:0] $end
$var reg 4 f" SDUAM_i/system_ila_0/inst/probe7_1 [3:0] $end
$var reg 11 j" SDUAM_i/system_ila_0/inst/probe8_1 [10:0] $end
$var reg 12 u" SDUAM_i/system_ila_0/inst/SLOT_0_BRAM_addr_1 [11:0] $end
$var reg 32 ## SDUAM_i/system_ila_0/inst/SLOT_0_BRAM_din_1 [31:0] $end
$var reg 32 C# SDUAM_i/system_ila_0/inst/SLOT_0_BRAM_dout_1 [31:0] $end
$var reg 1 c# SDUAM_i/system_ila_0/inst/SLOT_0_BRAM_en_1 $end
$var reg 1 d# SDUAM_i/system_ila_0/inst/SLOT_0_BRAM_rst_1 $end
$var reg 4 e# SDUAM_i/system_ila_0/inst/SLOT_0_BRAM_we_1 [3:0] $end
$var reg 1 i# _TRIGGER $end
$var reg 1 j# _WINDOW $end
$var reg 1 k# _GAP $end
$upscope $end
$enddefinitions $end
#0
$dumpvars
b1010101010101010101010101010101 "
b1010101010101010101010101010101 B
b1010101010101010101010101010101 b
b1010101010101010101010101010101 $"
0D"
0E"
b1010101010101010101010101010101 F"
b0 f"
b11 j"
b100 u"
b1010101010101010101010101010101 ##
b1010101010101010101010101010101 C#
0c#
0d#
b0 e#
0i#
1j#
0k#
$end
#1
b0 j"
#2
b1 j"
#3
b10 j"
#4
b11 j"
#5
b0 j"
#6
b1 j"
#7
b10 j"
#8
b11 j"
#9
b0 j"
#10
b1 j"
#11
b10 j"
#12
b11 j"
#13
b0 j"
#14
b1 j"
#15
b10 j"
#16
b11 j"
#17
b0 j"
#18
b1 j"
#19
b10 j"
#20
b11 j"
1i#
#21
b0 j"
#22
b1 j"
#23
b10 j"
#24
b11 j"
#25
b0 j"
#26
b1 j"
#27
b10 j"
#28
b11 j"
#29
b0 j"
#30
b1 j"
#31
b10 j"
#32
b11 j"
#33
b0 j"
#34
b1 j"
#35
b10 j"
#36
b11 j"
#37
b0 j"
#38
b1 j"
#39
b10 j"
#40
b11 j"
#41
b0 j"
#42
b1 j"
#43
b10 j"
#44
b11 j"
#45
b0 j"
#46
b1 j"
#47
b10 j"
#48
b11 j"
#49
b0 j"
#50
b1 j"
#51
b10 j"
#52
b11 j"
#53
b0 j"
#54
b1 j"
#55
b10 j"
#56
b11 j"
#57
b0 j"
#58
b1 j"
#59
b10 j"
#60
b11 j"
#61
b0 j"
#62
b1 j"
#63
b10 j"
#64
b11 j"
#65
b0 j"
#66
b1 j"
#67
b10 j"
#68
b11 j"
#69
b0 j"
#70
b1 j"
#71
b10 j"
#72
b11 j"
#73
b0 j"
#74
b1 j"
#75
b10 j"
#76
b11 j"
#77
b0 j"
#78
b1 j"
#79
b10 j"
#80
b11 j"
#81
b0 j"
#82
b1 j"
#83
b10 j"
#84
b11 j"
#85
b0 j"
#86
b1 j"
#87
b10 j"
#88
b11 j"
#89
b0 j"
#90
b1 j"
#91
b10 j"
#92
b11 j"
#93
b0 j"
#94
b1 j"
#95
b10 j"
#96
b11 j"
#97
b0 j"
#98
b1 j"
#99
b10 j"
#100
b11 j"
#101
b0 j"
#102
b1 j"
#103
b10 j"
#104
b11 j"
#105
b0 j"
#106
b1 j"
#107
b10 j"
#108
b11 j"
#109
b0 j"
#110
b1 j"
#111
b10 j"
#112
b11 j"
#113
b0 j"
#114
b1 j"
#115
b10 j"
#116
b11 j"
#117
b0 j"
#118
b1 j"
#119
b10 j"
#120
b11 j"
#121
b0 j"
#122
b1 j"
#123
b10 j"
#124
b11 j"
#125
b0 j"
#126
b1 j"
#127
b10 j"
#128
b11 j"
#129
b0 j"
#130
b1 j"
#131
b10 j"
#132
b11 j"
#133
b0 j"
#134
b1 j"
#135
b10 j"
#136
b11 j"
#137
b0 j"
#138
b1 j"
#139
b10 j"
#140
b11 j"
#141
b0 j"
#142
b1 j"
#143
b10 j"
#144
b11 j"
#145
b0 j"
#146
b1 j"
#147
b10 j"
#148
b11 j"
#149
b0 j"
#150
b1 j"
#151
b10 j"
#152
b11 j"
#153
b0 j"
#154
b1 j"
#155
b10 j"
#156
b11 j"
#157
b0 j"
#158
b1 j"
#159
b10 j"
#160
b11 j"
#161
b0 j"
#162
b1 j"
#163
b10 j"
#164
b11 j"
#165
b0 j"
#166
b1 j"
#167
b10 j"
#168
b11 j"
#169
b0 j"
#170
b1 j"
#171
b10 j"
#172
b11 j"
#173
b0 j"
#174
b1 j"
#175
b10 j"
#176
b11 j"
#177
b0 j"
#178
b1 j"
#179
b10 j"
#180
b11 j"
#181
b0 j"
#182
b1 j"
#183
b10 j"
#184
b11 j"
#185
b0 j"
#186
b1 j"
#187
b10 j"
#188
b11 j"
#189
b0 j"
#190
b1 j"
#191
b10 j"
#192
b11 j"
#193
b0 j"
#194
b1 j"
#195
b10 j"
#196
b11 j"
#197
b0 j"
#198
b1 j"
#199
b10 j"
#200
b11 j"
#201
b0 j"
#202
b1 j"
#203
b10 j"
#204
b11 j"
#205
b0 j"
#206
b1 j"
#207
b10 j"
#208
b11 j"
#209
b0 j"
#210
b1 j"
#211
b10 j"
#212
b11 j"
#213
b0 j"
#214
b1 j"
#215
b10 j"
#216
b11 j"
#217
b0 j"
#218
b1 j"
#219
b10 j"
#220
b11 j"
#221
b0 j"
#222
b1 j"
#223
b10 j"
#224
b11 j"
#225
b0 j"
#226
b1 j"
#227
b10 j"
#228
b11 j"
#229
b0 j"
#230
b1 j"
#231
b10 j"
#232
b11 j"
#233
b0 j"
#234
b1 j"
#235
b10 j"
#236
b11 j"
#237
b0 j"
#238
b1 j"
#239
b10 j"
#240
b11 j"
#241
b0 j"
#242
b1 j"
#243
b10 j"
#244
b11 j"
#245
b0 j"
#246
b1 j"
#247
b10 j"
#248
b11 j"
#249
b0 j"
#250
b1 j"
#251
b10 j"
#252
b11 j"
#253
b0 j"
#254
b1 j"
#255
b10 j"
#256
b11 j"
#257
b0 j"
#258
b1 j"
#259
b10 j"
#260
b11 j"
#261
b0 j"
#262
b1 j"
#263
b10 j"
#264
b11 j"
#265
b0 j"
#266
b1 j"
#267
b10 j"
#268
b11 j"
#269
b0 j"
#270
b1 j"
#271
b10 j"
#272
b11 j"
#273
b0 j"
#274
b1 j"
#275
b10 j"
#276
b11 j"
#277
b0 j"
#278
b1 j"
#279
b10 j"
#280
b11 j"
#281
b0 j"
#282
b1 j"
#283
b10 j"
#284
b11 j"
#285
b0 j"
#286
b1 j"
#287
b10 j"
#288
b11 j"
#289
b0 j"
#290
b1 j"
#291
b10 j"
#292
b11 j"
#293
b0 j"
#294
b1 j"
#295
b10 j"
#296
b11 j"
#297
b0 j"
#298
b1 j"
#299
b10 j"
#300
b11 j"
#301
b0 j"
#302
b1 j"
#303
b10 j"
#304
b11 j"
#305
b0 j"
#306
b1 j"
#307
b10 j"
#308
b11 j"
#309
b0 j"
#310
b1 j"
#311
b10 j"
#312
b11 j"
#313
b0 j"
#314
b1 j"
#315
b10 j"
#316
b11 j"
#317
b0 j"
#318
b1 j"
#319
b10 j"
#320
b11 j"
#321
b0 j"
#322
b1 j"
#323
b10 j"
#324
b11 j"
#325
b0 j"
#326
b1 j"
#327
b10 j"
#328
b11 j"
#329
b0 j"
#330
b1 j"
#331
b10 j"
#332
b11 j"
#333
b0 j"
#334
b1 j"
#335
b10 j"
#336
b11 j"
#337
b0 j"
#338
b1 j"
#339
b10 j"
#340
b11 j"
#341
b0 j"
#342
b1 j"
#343
b10 j"
#344
b11 j"
#345
b0 j"
#346
b1 j"
#347
b10 j"
#348
b11 j"
#349
b0 j"
#350
b1 j"
#351
b10 j"
#352
b11 j"
#353
b0 j"
#354
b1 j"
#355
b10 j"
#356
b11 j"
#357
b0 j"
#358
b1 j"
#359
b10 j"
#360
b11 j"
#361
b0 j"
#362
b1 j"
#363
b10 j"
#364
b11 j"
#365
b0 j"
#366
b1 j"
#367
b10 j"
#368
b11 j"
#369
b0 j"
#370
b1 j"
#371
b10 j"
#372
b11 j"
#373
b0 j"
#374
b1 j"
#375
b10 j"
#376
b11 j"
#377
b0 j"
#378
b1 j"
#379
b10 j"
#380
b11 j"
#381
b0 j"
#382
b1 j"
#383
b10 j"
#384
b11 j"
#385
b0 j"
#386
b1 j"
#387
b10 j"
#388
b11 j"
#389
b0 j"
#390
b1 j"
#391
b10 j"
#392
b11 j"
#393
b0 j"
#394
b1 j"
#395
b10 j"
#396
b11 j"
#397
b0 j"
#398
b1 j"
#399
b10 j"
#400
b11 j"
#401
b0 j"
#402
b1 j"
#403
b10 j"
#404
b11 j"
#405
b0 j"
#406
b1 j"
#407
b10 j"
#408
b11 j"
#409
b0 j"
#410
b1 j"
#411
b10 j"
#412
b11 j"
#413
b0 j"
#414
b1 j"
#415
b10 j"
#416
b11 j"
#417
b0 j"
#418
b1 j"
#419
b10 j"
#420
b11 j"
#421
b0 j"
#422
b1 j"
#423
b10 j"
#424
b11 j"
#425
b0 j"
#426
b1 j"
#427
b10 j"
#428
b11 j"
#429
b0 j"
#430
b1 j"
#431
b10 j"
#432
b11 j"
#433
b0 j"
#434
b1 j"
#435
b10 j"
#436
b11 j"
#437
b0 j"
#438
b1 j"
#439
b10 j"
#440
b11 j"
#441
b0 j"
#442
b1 j"
#443
b10 j"
#444
b11 j"
#445
b0 j"
#446
b1 j"
#447
b10 j"
#448
b11 j"
#449
b0 j"
#450
b1 j"
#451
b10 j"
#452
b11 j"
#453
b0 j"
#454
b1 j"
#455
b10 j"
#456
b11 j"
#457
b0 j"
#458
b1 j"
#459
b10 j"
#460
b11 j"
#461
b0 j"
#462
b1 j"
#463
b10 j"
#464
b11 j"
#465
b0 j"
#466
b1 j"
#467
b10 j"
#468
b11 j"
#469
b0 j"
#470
b1 j"
#471
b10 j"
#472
b11 j"
#473
b0 j"
#474
b1 j"
#475
b10 j"
#476
b11 j"
#477
b0 j"
#478
b1 j"
#479
b10 j"
#480
b11 j"
#481
b0 j"
#482
b1 j"
#483
b10 j"
#484
b11 j"
#485
b0 j"
#486
b1 j"
#487
b10 j"
#488
b11 j"
#489
b0 j"
#490
b1 j"
#491
b10 j"
#492
b11 j"
#493
b0 j"
#494
b1 j"
#495
b10 j"
#496
b11 j"
#497
b0 j"
#498
b1 j"
#499
b10 j"
#500
b11 j"
#501
b0 j"
#502
b1 j"
#503
b10 j"
#504
b11 j"
#505
b0 j"
#506
b1 j"
#507
b10 j"
#508
b11 j"
#509
b0 j"
#510
b1 j"
#511
b10 j"
#512
b11 j"
#513
b0 j"
#514
b1 j"
#515
b10 j"
#516
b11 j"
#517
b0 j"
#518
b1 j"
#519
b10 j"
#520
b11 j"
#521
b0 j"
#522
b1 j"
#523
b10 j"
#524
b11 j"
#525
b0 j"
#526
b1 j"
#527
b10 j"
#528
b11 j"
#529
b0 j"
#530
b1 j"
#531
b10 j"
#532
b11 j"
#533
b0 j"
#534
b1 j"
#535
b10 j"
#536
b11 j"
#537
b0 j"
#538
b1 j"
#539
b10 j"
#540
b11 j"
#541
b0 j"
#542
b1 j"
#543
b10 j"
#544
b11 j"
#545
b0 j"
#546
b1 j"
#547
b10 j"
#548
b11 j"
#549
b0 j"
#550
b1 j"
#551
b10 j"
#552
b11 j"
#553
b0 j"
#554
b1 j"
#555
b10 j"
#556
b11 j"
#557
b0 j"
#558
b1 j"
#559
b10 j"
#560
b11 j"
#561
b0 j"
#562
b1 j"
#563
b10 j"
#564
b11 j"
#565
b0 j"
#566
b1 j"
#567
b10 j"
#568
b11 j"
#569
b0 j"
#570
b1 j"
#571
b10 j"
#572
b11 j"
#573
b0 j"
#574
b1 j"
#575
b10 j"
#576
b11 j"
#577
b0 j"
#578
b1 j"
#579
b10 j"
#580
b11 j"
#581
b0 j"
#582
b1 j"
#583
b10 j"
#584
b11 j"
#585
b0 j"
#586
b1 j"
#587
b10 j"
#588
b11 j"
#589
b0 j"
#590
b1 j"
#591
b10 j"
#592
b11 j"
#593
b0 j"
#594
b1 j"
#595
b10 j"
#596
b11 j"
#597
b0 j"
#598
b1 j"
#599
b10 j"
#600
b11 j"
#601
b0 j"
#602
b1 j"
#603
b10 j"
#604
b11 j"
#605
b0 j"
#606
b1 j"
#607
b10 j"
#608
b11 j"
#609
b0 j"
#610
b1 j"
#611
b10 j"
#612
b11 j"
#613
b0 j"
#614
b1 j"
#615
b10 j"
#616
b11 j"
#617
b0 j"
#618
b1 j"
#619
b10 j"
#620
b11 j"
#621
b0 j"
#622
b1 j"
#623
b10 j"
#624
b11 j"
#625
b0 j"
#626
b1 j"
#627
b10 j"
#628
b11 j"
#629
b0 j"
#630
b1 j"
#631
b10 j"
#632
b11 j"
#633
b0 j"
#634
b1 j"
#635
b10 j"
#636
b11 j"
#637
b0 j"
#638
b1 j"
#639
b10 j"
#640
b11 j"
#641
b0 j"
#642
b1 j"
#643
b10 j"
#644
b11 j"
#645
b0 j"
#646
b1 j"
#647
b10 j"
#648
b11 j"
#649
b0 j"
#650
b1 j"
#651
b10 j"
#652
b11 j"
#653
b0 j"
#654
b1 j"
#655
b10 j"
#656
b11 j"
#657
b0 j"
#658
b1 j"
#659
b10 j"
#660
b11 j"
#661
b0 j"
#662
b1 j"
#663
b10 j"
#664
b11 j"
#665
b0 j"
#666
b1 j"
#667
b10 j"
#668
b11 j"
#669
b0 j"
#670
b1 j"
#671
b10 j"
#672
b11 j"
#673
b0 j"
#674
b1 j"
#675
b10 j"
#676
b11 j"
#677
b0 j"
#678
b1 j"
#679
b10 j"
#680
b11 j"
#681
b0 j"
#682
b1 j"
#683
b10 j"
#684
b11 j"
#685
b0 j"
#686
b1 j"
#687
b10 j"
#688
b11 j"
#689
b0 j"
#690
b1 j"
#691
b10 j"
#692
b11 j"
#693
b0 j"
#694
b1 j"
#695
b10 j"
#696
b11 j"
#697
b0 j"
#698
b1 j"
#699
b10 j"
#700
b11 j"
#701
b0 j"
#702
b1 j"
#703
b10 j"
#704
b11 j"
#705
b0 j"
#706
b1 j"
#707
b10 j"
#708
b11 j"
#709
b0 j"
#710
b1 j"
#711
b10 j"
#712
b11 j"
#713
b0 j"
#714
b1 j"
#715
b10 j"
#716
b11 j"
#717
b0 j"
#718
b1 j"
#719
b10 j"
#720
b11 j"
#721
b0 j"
#722
b1 j"
#723
b10 j"
#724
b11 j"
#725
b0 j"
#726
b1 j"
#727
b10 j"
#728
b11 j"
#729
b0 j"
#730
b1 j"
#731
b10 j"
#732
b11 j"
#733
b0 j"
#734
b1 j"
#735
b10 j"
#736
b11 j"
#737
b0 j"
#738
b1 j"
#739
b10 j"
#740
b11 j"
#741
b0 j"
#742
b1 j"
#743
b10 j"
#744
b11 j"
#745
b0 j"
#746
b1 j"
#747
b10 j"
#748
b11 j"
#749
b0 j"
#750
b1 j"
#751
b10 j"
#752
b11 j"
#753
b0 j"
#754
b1 j"
#755
b10 j"
#756
b11 j"
#757
b0 j"
#758
b1 j"
#759
b10 j"
#760
b11 j"
#761
b0 j"
#762
b1 j"
#763
b10 j"
#764
b11 j"
#765
b0 j"
#766
b1 j"
#767
b10 j"
#768
b11 j"
#769
b0 j"
#770
b1 j"
#771
b10 j"
#772
b11 j"
#773
b0 j"
#774
b1 j"
#775
b10 j"
#776
b11 j"
#777
b0 j"
#778
b1 j"
#779
b10 j"
#780
b11 j"
#781
b0 j"
#782
b1 j"
#783
b10 j"
#784
b11 j"
#785
b0 j"
#786
b1 j"
#787
b10 j"
#788
b11 j"
#789
b0 j"
#790
b1 j"
#791
b10 j"
#792
b11 j"
#793
b0 j"
#794
b1 j"
#795
b10 j"
#796
b11 j"
#797
b0 j"
#798
b1 j"
#799
b10 j"
#800
b11 j"
#801
b0 j"
#802
b1 j"
#803
b10 j"
#804
b11 j"
#805
b0 j"
#806
b1 j"
#807
b10 j"
#808
b11 j"
#809
b0 j"
#810
b1 j"
#811
b10 j"
#812
b11 j"
#813
b0 j"
#814
b1 j"
#815
b10 j"
#816
b11 j"
#817
b0 j"
#818
b1 j"
#819
b10 j"
#820
b11 j"
#821
b0 j"
#822
b1 j"
#823
b10 j"
#824
b11 j"
#825
b0 j"
#826
b1 j"
#827
b10 j"
#828
b11 j"
#829
b0 j"
#830
b1 j"
#831
b10 j"
#832
b11 j"
#833
b0 j"
#834
b1 j"
#835
b10 j"
#836
b11 j"
#837
b0 j"
#838
b1 j"
#839
b10 j"
#840
b11 j"
#841
b0 j"
#842
b1 j"
#843
b10 j"
#844
b11 j"
#845
b0 j"
#846
b1 j"
#847
b10 j"
#848
b11 j"
#849
b0 j"
#850
b1 j"
#851
b10 j"
#852
b11 j"
#853
b0 j"
#854
b1 j"
#855
b10 j"
#856
b11 j"
#857
b0 j"
#858
b1 j"
#859
b10 j"
#860
b11 j"
#861
b0 j"
#862
b1 j"
#863
b10 j"
#864
b11 j"
#865
b0 j"
#866
b1 j"
#867
b10 j"
#868
b11 j"
#869
b0 j"
#870
b1 j"
#871
b10 j"
#872
b11 j"
#873
b0 j"
#874
b1 j"
#875
b10 j"
#876
b11 j"
#877
b0 j"
#878
b1 j"
#879
b10 j"
#880
b11 j"
#881
b0 j"
#882
b1 j"
#883
b10 j"
#884
b11 j"
#885
b0 j"
#886
b1 j"
#887
b10 j"
#888
b11 j"
#889
b0 j"
#890
b1 j"
#891
b10 j"
#892
b11 j"
#893
b0 j"
#894
b1 j"
#895
b10 j"
#896
b11 j"
#897
b0 j"
#898
b1 j"
#899
b10 j"
#900
b11 j"
#901
b0 j"
#902
b1 j"
#903
b10 j"
#904
b11 j"
#905
b0 j"
#906
b1 j"
#907
b10 j"
#908
b11 j"
#909
b0 j"
#910
b1 j"
#911
b10 j"
#912
b11 j"
#913
b0 j"
#914
b1 j"
#915
b10 j"
#916
b11 j"
#917
b0 j"
#918
b1 j"
#919
b10 j"
#920
b11 j"
#921
b0 j"
#922
b1 j"
#923
b10 j"
#924
b11 j"
#925
b0 j"
#926
b1 j"
#927
b10 j"
#928
b11 j"
#929
b0 j"
#930
b1 j"
#931
b10 j"
#932
b11 j"
#933
b0 j"
#934
b1 j"
#935
b10 j"
#936
b11 j"
#937
b0 j"
#938
b1 j"
#939
b10 j"
#940
b11 j"
#941
b0 j"
#942
b1 j"
#943
b10 j"
#944
b11 j"
#945
b0 j"
#946
b1 j"
#947
b10 j"
#948
b11 j"
#949
b0 j"
#950
b1 j"
#951
b10 j"
#952
b11 j"
#953
b0 j"
#954
b1 j"
#955
b10 j"
#956
b11 j"
#957
b0 j"
#958
b1 j"
#959
b10 j"
#960
b11 j"
#961
b0 j"
#962
b1 j"
#963
b10 j"
#964
b11 j"
#965
b0 j"
#966
b1 j"
#967
b10 j"
#968
b11 j"
#969
b0 j"
#970
b1 j"
#971
b10 j"
#972
b11 j"
#973
b0 j"
#974
b1 j"
#975
b10 j"
#976
b11 j"
#977
b0 j"
#978
b1 j"
#979
b10 j"
#980
b11 j"
#981
b0 j"
#982
b1 j"
#983
b10 j"
#984
b11 j"
#985
b0 j"
#986
b1 j"
#987
b10 j"
#988
b11 j"
#989
b0 j"
#990
b1 j"
#991
b10 j"
#992
b11 j"
#993
b0 j"
#994
b1 j"
#995
b10 j"
#996
b11 j"
#997
b0 j"
#998
b1 j"
#999
b10 j"
#1000
b11 j"
#1001
b0 j"
#1002
b1 j"
#1003
b10 j"
#1004
b11 j"
#1005
b0 j"
#1006
b1 j"
#1007
b10 j"
#1008
b11 j"
#1009
b0 j"
#1010
b1 j"
#1011
b10 j"
#1012
b11 j"
#1013
b0 j"
#1014
b1 j"
#1015
b10 j"
#1016
b11 j"
#1017
b0 j"
#1018
b1 j"
#1019
b10 j"
#1020
b11 j"
#1021
b0 j"
#1022
b1 j"
#1023
b10 j"
